<svg xmlns="http://www.w3.org/2000/svg" width="71" height="33" viewBox="0 0 71 33">
  <text id="Appm" transform="translate(0 27)" fill="#e96700" font-size="25" font-family="SegoeUI-Bold, Segoe UI" font-weight="700">
    <tspan x="0" y="0">App</tspan>
    <tspan y="0" fill="#068813" font-family="SegoeUI-BoldItalic, Segoe UI" font-style="italic">M</tspan>
  </text>
</svg>
